…
  df %>% 
    select(id, village, village_trt, host, arm, coach, y) %>%
    as_tibble() %>%
    print(n=16)
```

    ## # A tibble: 10,830 × 7
    ##       id village village_trt  host   arm coach       y
    ##    <int> <chr>         <dbl> <dbl> <dbl> <chr>   <dbl>
    ##  1     1 v_1               1     1     1 c_1   -0.774 
    ##  2     2 v_1               1     1     1 c_1    1.18  
    ##  3     3 v_1               1     1     1 c_1    1.27  
    ##  4     4 v_1               1     1     1 c_1    0.140 
    ##  5     5 v_1               1     1     1 c_1    1.83  
    ##  6     6 v_1               1     1     1 c_1   -0.569 
    ##  7     7 v_1               1     1     1 c_1   -0.0722
    ##  8     8 v_1               1     1     1 c_1    0.833 
    ##  9     9 v_1               1     1     1 c_1    3.05  
    ## 10    10 v_1               1     1     1 c_1    0.0581
    ## 11    11 v_1               1     1     1 c_1    2.31  
    ## 12    12 v_1               1     1     1 c_1    0.313 
    ## 13    13 v_1               1     1     1 c_1    1.35  
    ## 14    14 v_1               1     1     1 c_1    0.173 
    ## 15    15 v_1               1     1     1 c_1   -0.396 
    ## 16    16 v_1               1     1     1 c_1   -0.119 
    ## # … with 10,814 more rows
…
## Descriptive exploration of coaching variability (Activity 1.2)

We will use coach-level estimates from the multilevel model to describe
and visualize coaching variability. One way to do this is to use the
[`modelbased`](https://easystats.github.io/modelbased/articles/estimate_grouplevel.html)
package to calculate the group-level effects for coaches.

``` r
  m1_coach <- estimate_grouplevel(m1[[1]])
  m1_coach %>% as_tibble %>% arrange(desc(Coefficient)) %>%print(n=20)
```

    ## # A tibble: 9,477 × 8
    ##    Group Level  Parameter Coefficient    SE    CI    CI_low CI_high
    ##    <chr> <chr>  <chr>           <dbl> <dbl> <dbl>     <dbl>   <dbl>
    ##  1 coach c_55   trt             0.673 0.170  0.95  0.340      1.01 
    ##  2 group g_43   trt             0.575 0.201  0.95  0.180      0.970
    ##  3 group g_69   trt             0.551 0.201  0.95  0.156      0.946
    ##  4 group g_57   trt             0.521 0.201  0.95  0.127      0.916
    ##  5 group g_4    trt             0.481 0.222  0.95  0.0447     0.916
    ##  6 group g_81   trt             0.466 0.201  0.95  0.0710     0.861
    ##  7 group g_103  trt             0.450 0.222  0.95  0.0141     0.886
    ##  8 group g_123  trt             0.449 0.222  0.95  0.0135     0.885
    ##  9 group g_1207 trt             0.418 0.222  0.95 -0.0178     0.854
    ## 10 group g_1228 trt             0.394 0.201  0.95 -0.000324   0.789
    ## 11 group g_1232 trt             0.361 0.201  0.95 -0.0336     0.755
    ## 12 group g_125  trt             0.350 0.222  0.95 -0.0859     0.786
    ## 13 group g_114  trt             0.328 0.222  0.95 -0.108      0.764
    ## 14 group g_79   trt             0.328 0.201  0.95 -0.0673     0.722
    ## 15 coach c_4    trt             0.314 0.204  0.95 -0.0854     0.714
    ## 16 group g_1296 trt             0.314 0.222  0.95 -0.122      0.750
    ## 17 group g_1198 trt             0.304 0.222  0.95 -0.132      0.740
    ## 18 group g_1252 trt             0.303 0.201  0.95 -0.0913     0.698
    ## 19 group g_1208 trt             0.300 0.222  0.95 -0.136      0.736
    ## 20 group g_66   trt             0.300 0.201  0.95 -0.0952     0.694
    ## # … with 9,457 more rows
…
